…
Let's get:

- GDP by multiplying GPD per capita with population, and
- GDP in billions, named (`gdpBill`), rounded to two decimals.


```r
gapminder %>%
  mutate(gdp = gdpPercap * pop,
         gdpBill = round( gdp / 10^9),
         )
```

```
## # A tibble: 1,704 x 8
##    country    continent  year lifeExp     pop gdpPercap        gdp gdpBill
##    <fct>      <fct>     <int>   <dbl>   <int>     <dbl>      <dbl>   <dbl>
##  1 Afghanist… Asia       1952    28.8  8.43e6      779.    6.57e 9       7
##  2 Afghanist… Asia       1957    30.3  9.24e6      821.    7.59e 9       8
##  3 Afghanist… Asia       1962    32.0  1.03e7      853.    8.76e 9       9
##  4 Afghanist… Asia       1967    34.0  1.15e7      836.    9.65e 9      10
##  5 Afghanist… Asia       1972    36.1  1.31e7      740.    9.68e 9      10
##  6 Afghanist… Asia       1977    38.4  1.49e7      786.    1.17e10      12
##  7 Afghanist… Asia       1982    39.9  1.29e7      978.    1.26e10      13
##  8 Afghanist… Asia       1987    40.8  1.39e7      852.    1.18e10      12
##  9 Afghanist… Asia       1992    41.7  1.63e7      649.    1.06e10      11
## 10 Afghanist… Asia       1997    41.8  2.22e7      635.    1.41e10      14
## # ... with 1,694 more rows
```

Notice the backwards compatibility! No need for loops!

Try the same thing, but with `transmute` (drops all other variables).


```r
gapminder %>%
  transmute(gdp = gdpPercap * pop,
         gdpBill = round( gdp / 10^9),
         )
```

```
## # A tibble: 1,704 x 2
##             gdp gdpBill
##           <dbl>   <dbl>
##  1  6567086330.       7
##  2  7585448670.       8
##  3  8758855797.       9
##  4  9648014150.      10
##  5  9678553274.      10
##  6 11697659231.      12
##  7 12598563401.      13
##  8 11820990309.      12
##  9 10595901589.      11
## 10 14121995875.      14
## # ... with 1,694 more rows
```
…
Your turn: Make a new column called `cc` that pastes the country name followed by the continent, separated by a comma. (Hint: use the `paste` function with the `sep=", "` argument).


```r
gapminder %>%
  mutate(cc = paste(country, continent, sep = ", "))
```

```
## # A tibble: 1,704 x 7
##    country     continent  year lifeExp      pop gdpPercap cc               
##    <fct>       <fct>     <int>   <dbl>    <int>     <dbl> <chr>            
##  1 Afghanistan Asia       1952    28.8  8425333      779. Afghanistan, Asia
##  2 Afghanistan Asia       1957    30.3  9240934      821. Afghanistan, Asia
##  3 Afghanistan Asia       1962    32.0 10267083      853. Afghanistan, Asia
##  4 Afghanistan Asia       1967    34.0 11537966      836. Afghanistan, Asia
##  5 Afghanistan Asia       1972    36.1 13079460      740. Afghanistan, Asia
##  6 Afghanistan Asia       1977    38.4 14880372      786. Afghanistan, Asia
##  7 Afghanistan Asia       1982    39.9 12881816      978. Afghanistan, Asia
##  8 Afghanistan Asia       1987    40.8 13867957      852. Afghanistan, Asia
##  9 Afghanistan Asia       1992    41.7 16317921      649. Afghanistan, Asia
## 10 Afghanistan Asia       1997    41.8 22227415      635. Afghanistan, Asia
## # ... with 1,694 more rows
```
…
## Grouped `mutate()`

Calculate the growth in population since the first year on record _for each country_. `first()` is useful.


```r
gapminder %>%
  group_by(country) %>%
  summarize(growth = last(pop) / first(pop)) %>%
  arrange(growth)
```

```
## # A tibble: 142 x 2
##    country        growth
##    <fct>           <dbl>
##  1 Bulgaria         1.01
##  2 Hungary          1.05
##  3 Czech Republic   1.12
##  4 Croatia          1.16
##  5 Austria          1.18
##  6 Belgium          1.19
##  7 Germany          1.19
##  8 United Kingdom   1.21
##  9 Italy            1.22
## 10 Portugal         1.25
## # ... with 132 more rows
```

```r
gapminder %>%
  group_by(country) %>%
  mutate(change = pop / lag(pop))
```

```
## # A tibble: 1,704 x 7
## # Groups:   country [142]
##    country     continent  year lifeExp      pop gdpPercap change
##    <fct>       <fct>     <int>   <dbl>    <int>     <dbl>  <dbl>
##  1 Afghanistan Asia       1952    28.8  8425333      779. NA    
##  2 Afghanistan Asia       1957    30.3  9240934      821.  1.10 
##  3 Afghanistan Asia       1962    32.0 10267083      853.  1.11 
##  4 Afghanistan Asia       1967    34.0 11537966      836.  1.12 
##  5 Afghanistan Asia       1972    36.1 13079460      740.  1.13 
##  6 Afghanistan Asia       1977    38.4 14880372      786.  1.14 
##  7 Afghanistan Asia       1982    39.9 12881816      978.  0.866
##  8 Afghanistan Asia       1987    40.8 13867957      852.  1.08 
##  9 Afghanistan Asia       1992    41.7 16317921      649.  1.18 
## 10 Afghanistan Asia       1997    41.8 22227415      635.  1.36 
## # ... with 1,694 more rows
```
…
```r
cda <- gapminder %>%
  filter(country == 'Canada') %>%
  mutate(gdp = gdpPercap * pop) %>%
  `[[`("gdp")

gapminder %>%
  mutate(cda_gdp = rep(cda, nlevels(country)),
         gdp = gdpPercap * pop,
         gdpRel = gdp / cda_gdp)
```

```
## # A tibble: 1,704 x 9
##    country continent  year lifeExp    pop gdpPercap cda_gdp     gdp gdpRel
##    <fct>   <fct>     <int>   <dbl>  <int>     <dbl>   <dbl>   <dbl>  <dbl>
##  1 Afghan… Asia       1952    28.8 8.43e6      779. 1.68e11 6.57e 9 0.0391
##  2 Afghan… Asia       1957    30.3 9.24e6      821. 2.12e11 7.59e 9 0.0357
##  3 Afghan… Asia       1962    32.0 1.03e7      853. 2.56e11 8.76e 9 0.0343
##  4 Afghan… Asia       1967    34.0 1.15e7      836. 3.35e11 9.65e 9 0.0288
##  5 Afghan… Asia       1972    36.1 1.31e7      740. 4.23e11 9.68e 9 0.0229
##  6 Afghan… Asia       1977    38.4 1.49e7      786. 5.26e11 1.17e10 0.0223
##  7 Afghan… Asia       1982    39.9 1.29e7      978. 5.77e11 1.26e10 0.0218
##  8 Afghan… Asia       1987    40.8 1.39e7      852. 7.07e11 1.18e10 0.0167
##  9 Afghan… Asia       1992    41.7 1.63e7      649. 7.51e11 1.06e10 0.0141
## 10 Afghan… Asia       1997    41.8 2.22e7      635. 8.78e11 1.41e10 0.0161
## # ... with 1,694 more rows
```
…
## Practice Exercises

Practice these concepts in the following exercises. It might help you to first identify the type of function you are applying.

1. Convert the population to a number in billions.


```r
gapminder %>%
  transmute(popBill = pop / 10E9)
```

```
## # A tibble: 1,704 x 1
##     popBill
##       <dbl>
##  1 0.000843
##  2 0.000924
##  3 0.00103 
##  4 0.00115 
##  5 0.00131 
##  6 0.00149 
##  7 0.00129 
##  8 0.00139 
##  9 0.00163 
## 10 0.00222 
## # ... with 1,694 more rows
```

2. Compute the change in population from 1962 to 1972 for each country.


```r
gapminder %>%
  group_by(country) %>%
  summarize(
    change = pop[year == 1972] - pop[year == 1962]
    )
```

```
## # A tibble: 142 x 2
##    country       change
##    <fct>          <int>
##  1 Afghanistan  2812377
##  2 Albania       535417
##  3 Algeria      3759839
##  4 Angola       1068843
##  5 Argentina    3496016
##  6 Australia    2382032
##  7 Austria       414337
##  8 Bahrain        58937
##  9 Bangladesh  13920006
## 10 Belgium       490700
## # ... with 132 more rows
```
…
